#!/usr/bin/env dothttp

// Table visualization with the Pokemon API. Shows Pokemon names and their respective API endpoint URLs.
// <br/>
// <br/>
// _Sample JSON response_
// ```
// {
//     "count": 964,
//     "next": "https://pokeapi.co/api/v2/pokemon/?offset=20&limit=20",
//     "previous": null,
//     "results": [
//         {
//             "name": "bulbasaur",
//             "url": "https://pokeapi.co/api/v2/pokemon/1/"
//         },
//         {
//             "name": "ivysaur",
//             "url": "https://pokeapi.co/api/v2/pokemon/2/"
//         },
//         {
//             "name": "venusaur",
//             "url": "https://pokeapi.co/api/v2/pokemon/3/"
//         },
//         ...
//     ]
// }
// ```
// <br/>
// <br/>
// 
// _Sample Table_
// 
// ![Pokemon Table](https://raw.githubusercontent.com/isabelleyzhou/postman_visualizer_templates/master/table/table_pokemon.png "[Table]")

@name("Pokemon")
GET "https://pokeapi.co/api/v2/pokemon/
"


// Table visualization of the top track on the Spotify API.
// 
// To generate an authentication token to access the Spotify API, follow the instructions at [https://developer.spotify.com/documentation/web-api/quick-start/](https://developer.spotify.com/documentation/web-api/quick-start/).
// 
// _Sample JSON response_
// ```
// {
//   "tracks": [
//     {
//       "album": {
//         "album_type": "album",
//         "artists": [
//           {
//             "external_urls": {
//               "spotify": "https://open.spotify.com/artist/43ZHCT0cAZBISjO8DG9PnE"
//             },
//             "href": "https://api.spotify.com/v1/artists/43ZHCT0cAZBISjO8DG9PnE",
//             "id": "43ZHCT0cAZBISjO8DG9PnE",
//             "name": "Elvis Presley",
//             "type": "artist",
//             "uri": "spotify:artist:43ZHCT0cAZBISjO8DG9PnE"
//           }
//         ],
//         "external_urls": {
//           "spotify": "https://open.spotify.com/album/7xe8VI48TxUpU1IIo0RfGi"
//         },
//         "href": "https://api.spotify.com/v1/albums/7xe8VI48TxUpU1IIo0RfGi",
//         "id": "7xe8VI48TxUpU1IIo0RfGi",
//         "images": [
//           {
//             "height": 640,
//             "url": "https://i.scdn.co/image/ab67616d0000b273f96cefb0197694ad440c3314",
//             "width": 640
//           },
//           {
//             "height": 300,
//             "url": "https://i.scdn.co/image/ab67616d00001e02f96cefb0197694ad440c3314",
//             "width": 300
//           },
//           {
//             "height": 64,
//             "url": "https://i.scdn.co/image/ab67616d00004851f96cefb0197694ad440c3314",
//             "width": 64
//           }
//         ],
//         "name": "Blue Hawaii",
//         "release_date": "1961-10-20",
//         "release_date_precision": "day",
//         "total_tracks": 14,
//         "type": "album",
//         "uri": "spotify:album:7xe8VI48TxUpU1IIo0RfGi"
//       },
//       "artists": [
//         {
//           "external_urls": {
//             "spotify": "https://open.spotify.com/artist/43ZHCT0cAZBISjO8DG9PnE"
//           },
//           "href": "https://api.spotify.com/v1/artists/43ZHCT0cAZBISjO8DG9PnE",
//           "id": "43ZHCT0cAZBISjO8DG9PnE",
//           "name": "Elvis Presley",
//           "type": "artist",
//           "uri": "spotify:artist:43ZHCT0cAZBISjO8DG9PnE"
//         }
//       ],
//       "disc_number": 1,
//       "duration_ms": 182360,
//       "explicit": false,
//       "external_ids": {
//         "isrc": "USRC16101350"
//       },
//       "external_urls": {
//         "spotify": "https://open.spotify.com/track/44AyOl4qVkzS48vBsbNXaC"
//       },
//       "href": "https://api.spotify.com/v1/tracks/44AyOl4qVkzS48vBsbNXaC",
//       "id": "44AyOl4qVkzS48vBsbNXaC",
//       "is_local": false,
//       "is_playable": true,
//       "name": "Can't Help Falling in Love",
//       "popularity": 79,
//       "preview_url": "https://p.scdn.co/mp3-preview/994ebd7f49e4e935df56d450b0c12d8bad8bb9f4?cid=ab343db462f8494ea1e3f226eb7bc0cc",
//       "track_number": 5,
//       "type": "track",
//       "uri": "spotify:track:44AyOl4qVkzS48vBsbNXaC"
//     },
//     ...
//     ]
// }
// ```
// 
// _Sample Table_
// 
// ![Spotify Table](https://raw.githubusercontent.com/isabelleyzhou/postman_visualizer_templates/master/table/table_spotify.png "[Table]")

@name("Spotify Top Tracks")
GET "https://api.spotify.com/v1/artists/43ZHCT0cAZBISjO8DG9PnE/top-tracks"
"Content-Type": "application/x-www-form-urlencoded"
? "country"= "SE"



// Table visualization of the top tracks on the most viewed articles on the New York Times. Lists the title, abstract, publication date and url of each article.
// 
// The data here is from the NYT API. Sign up for an API key at [https://developer.nytimes.com/](https://developer.nytimes.com/) to access extensive NYT data!
// 
// _Sample Response_
// 
// ```
// {
//     "status": "OK",
//     "copyright": "Copyright (c) 2019 The New York Times Company.  All Rights Reserved.",
//     "num_results": 1707,
//     "results": [
//         {
//             "url": "https://www.nytimes.com/2019/11/13/movies/tom-hanks-mister-rogers.html",
//             "adx_keywords": "Hanks, Tom;Actors and Actresses;Movies;A Beautiful Day in the Neighborhood (Movie)",
//             "column": null,
//             "section": "Movies",
//             "byline": "By TAFFY BRODESSER-AKNER",
//             "type": "Article",
//             "title": "This Tom Hanks Story Will Help You Feel Less Bad",
//             "abstract": "Hanks is playing Mister Rogers in a new movie and is just as nice as you think he is. Please read this article anyway.",
//             "published_date": "2019-11-13",
//             "source": "The New York Times",
//             "id": 100000006800704,
//             "asset_id": 100000006800704,
//             "views": 1,
//             "des_facet": [
//                 "MOVIES"
//             ],
//             "org_facet": [
//                 "ACTORS AND ACTRESSES"
//             ],
//             "per_facet": [
//                 "HANKS, TOM"
//             ],
//             "geo_facet": "",
//             "media": [
//                 {
//                     "type": "image",
//                     "subtype": "photo",
//                     "caption": "“I recognized in myself a long time ago that I don’t instill fear in anybody,” Hanks said. “Now, that’s different than being nice, you know? I think I have a cache of mystery. But it’s not one of malevolence.”",
//                     "copyright": "Daniel Dorsa for The New York Times",
//                     "approved_for_syndication": 1,
//                     "media-metadata": [
//                         {
//                             "url": "https://static01.nyt.com/images/2019/11/17/arts/17tom-hanks2-promo/17tom-hanks2-thumbStandard.jpg",
//                             "format": "Standard Thumbnail",
//                             "height": 75,
//                             "width": 75
//                         },
//                         {
//                             "url": "https://static01.nyt.com/images/2019/11/17/arts/17tom-hanks2-promo/17tom-hanks2-promo-mediumThreeByTwo210.jpg",
//                             "format": "mediumThreeByTwo210",
//                             "height": 140,
//                             "width": 210
//                         },
//                         {
//                             "url": "https://static01.nyt.com/images/2019/11/17/arts/17tom-hanks2-promo/17tom-hanks2-promo-mediumThreeByTwo440.jpg",
//                             "format": "mediumThreeByTwo440",
//                             "height": 293,
//                             "width": 440
//                         }
//                     ]
//                 }
//             ],
//             "uri": "nyt://article/8837752f-6207-55e9-8cc3-b811091e3a86"
//         },
//         {
//             "url": "https://www.nytimes.com/2019/11/13/us/politics/impeachment-hearings.html",
//             "adx_keywords": "Trump-Ukraine Whistle-Blower Complaint and Impeachment Inquiry;Trump, Donald J;United States Politics and Government;Presidential Election of 2020;United States International Relations;Impeachment;Democratic Party;Republican Party;House of Representatives;Biden, Joseph R Jr;Kent, George P;Giuliani, Rudolph W;Taylor, William B Jr;Yovanovitch, Marie L;Zelensky, Volodymyr",
//             "column": null,
//             "section": "U.S.",
//             "byline": "By MICHAEL D. SHEAR",
//             "type": "Article",
//             "title": "Key Moments From the First Public Impeachment Hearing",
//             "abstract": "Witnesses testified that President Trump pressured a foreign power to help him win re-election during historic hearings that previewed an intensely partisan battle.",
//             "published_date": "2019-11-13",
//             "source": "The New York Times",
//             "id": 100000006821335,
//             "asset_id": 100000006821335,
//             "views": 2,
//             "des_facet": [
//                 "TRUMP-UKRAINE WHISTLE-BLOWER COMPLAINT AND IMPEACHMENT INQUIRY",
//                 "UNITED STATES POLITICS AND GOVERNMENT",
//                 "UNITED STATES INTERNATIONAL RELATIONS"
//             ],
//             "org_facet": [
//                 "PRESIDENTIAL ELECTION OF 2020",
//                 "IMPEACHMENT",
//                 "DEMOCRATIC PARTY",
//                 "REPUBLICAN PARTY",
//                 "HOUSE OF REPRESENTATIVES"
//             ],
//             "per_facet": [
//                 "TRUMP, DONALD J",
//                 "BIDEN, JOSEPH R JR",
//                 "KENT, GEORGE P",
//                 "GIULIANI, RUDOLPH W",
//                 "TAYLOR, WILLIAM B JR",
//                 "YOVANOVITCH, MARIE L",
//                 "ZELENSKY, VOLODYMYR"
//             ],
//             "geo_facet": "",
//             "media": [
//                 {
//                     "type": "image",
//                     "subtype": "photo",
//                     "caption": "William B. Taylor Jr., center right, and George P. Kent, right, preparing to testify before the House Intelligence Committee on Wednesday in the first public hearing of the impeachment inquiry.",
//                     "copyright": "Erin Schaff/The New York Times",
//                     "approved_for_syndication": 1,
//                     "media-metadata": [
//                         {
//                             "url": "https://static01.nyt.com/images/2019/11/13/us/politics/13dc-impeach1/13dc-impeach1-thumbStandard.jpg",
//                             "format": "Standard Thumbnail",
//                             "height": 75,
//                             "width": 75
//                         },
//                         {
//                             "url": "https://static01.nyt.com/images/2019/11/13/us/politics/13dc-impeach1/merlin_164329176_d5cf6b25-7f5e-4510-a1e8-2722c471fb79-mediumThreeByTwo210.jpg",
//                             "format": "mediumThreeByTwo210",
//                             "height": 140,
//                             "width": 210
//                         },
//                         {
//                             "url": "https://static01.nyt.com/images/2019/11/13/us/politics/13dc-impeach1/merlin_164329176_d5cf6b25-7f5e-4510-a1e8-2722c471fb79-mediumThreeByTwo440.jpg",
//                             "format": "mediumThreeByTwo440",
//                             "height": 293,
//                             "width": 440
//                         }
//                     ]
//                 }
//             ],
//             "uri": "nyt://article/c54d6d09-19da-5bc4-a648-d5ee9a72d52c"
//         },
//         ...
//     ]
// }
// ```
// 
// _Sample Table_
// ![NYT Table](https://raw.githubusercontent.com/isabelleyzhou/postman_visualizer_templates/master/table/table_nyt.png "[Table]")

@name("NYT Most Viewed Articles")
GET "https://api.nytimes.com/svc/mostpopular/v2/viewed/7.json"
? "api-key"= "demo-key"



